C:\Users\LASSE03\Google Drive\Doutorado\SVN\latex\thesis\thesis_matlab\ratc_matlab_codes\2014RadioAccessTechnologyClassification\simulation_amqam\output\simpleTrain_1.psdif C:\Users\LASSE03\Google Drive\Doutorado\SVN\latex\thesis\thesis_matlab\ratc_matlab_codes\2014RadioAccessTechnologyClassification\simulation_amqam\scenarioSimple\scenarioDescription.m
C:\Users\LASSE03\Google Drive\Doutorado\SVN\latex\thesis\thesis_matlab\ratc_matlab_codes\2014RadioAccessTechnologyClassification\simulation_amqam\output\simpleTrain_2.psdif C:\Users\LASSE03\Google Drive\Doutorado\SVN\latex\thesis\thesis_matlab\ratc_matlab_codes\2014RadioAccessTechnologyClassification\simulation_amqam\scenarioSimple\scenarioDescription.m
C:\Users\LASSE03\Google Drive\Doutorado\SVN\latex\thesis\thesis_matlab\ratc_matlab_codes\2014RadioAccessTechnologyClassification\simulation_amqam\output\simpleTrain_3.psdif C:\Users\LASSE03\Google Drive\Doutorado\SVN\latex\thesis\thesis_matlab\ratc_matlab_codes\2014RadioAccessTechnologyClassification\simulation_amqam\scenarioSimple\scenarioDescription.m
C:\Users\LASSE03\Google Drive\Doutorado\SVN\latex\thesis\thesis_matlab\ratc_matlab_codes\2014RadioAccessTechnologyClassification\simulation_amqam\output\amqamTrain_1.psdif C:\Users\LASSE03\Google Drive\Doutorado\SVN\latex\thesis\thesis_matlab\ratc_matlab_codes\2014RadioAccessTechnologyClassification\simulation_amqam\scenario3Classes\scenarioDescription.m
C:\Users\LASSE03\Google Drive\Doutorado\SVN\latex\thesis\thesis_matlab\ratc_matlab_codes\2014RadioAccessTechnologyClassification\simulation_amqam\output\amqamTrain_2.psdif C:\Users\LASSE03\Google Drive\Doutorado\SVN\latex\thesis\thesis_matlab\ratc_matlab_codes\2014RadioAccessTechnologyClassification\simulation_amqam\scenario3Classes\scenarioDescription.m
C:\Users\LASSE03\Google Drive\Doutorado\SVN\latex\thesis\thesis_matlab\ratc_matlab_codes\2014RadioAccessTechnologyClassification\simulation_amqam\output\amqamTrain_3.psdif C:\Users\LASSE03\Google Drive\Doutorado\SVN\latex\thesis\thesis_matlab\ratc_matlab_codes\2014RadioAccessTechnologyClassification\simulation_amqam\scenario3Classes\scenarioDescription.m
